…
That last line is why I don’t redistribute the corpus.

## The targets package builds the corpus

Assuming the data are downloaded and the appropriate packages are
installed, then running `targets::tar_make()` should count the words in
the corpus. targets also [downloads](https://osf.io/djpqz/) and prepares
the published version of the SUBTLEX-US frequency counts.

``` r
data_subtlexus <- targets::tar_read(data_subtlexus)
data_subtlexus
#> # A tibble: 74,286 × 15
#>    Word     FREQcount CDcount FREQlow Cdlow    SUBTLWF Lg10WF SUBTLCD Lg10CD
#>    <chr>        <dbl>   <dbl>   <dbl> <dbl>      <dbl>  <dbl>   <dbl>  <dbl>
#>  1 a          1041179    8382  976941  8380 20415.      6.02  99.9     3.92 
#>  2 aa              87      70       6     5     1.71    1.94   0.835   1.85 
#>  3 aaa             25      23       5     3     0.490   1.41   0.274   1.38 
#>  4 aah           2688     634      52    37    52.7     3.43   7.56    2.80 
#>  5 aahed            1       1       1     1     0.0196  0.301  0.0119  0.301
#>  6 aahing           2       2       2     2     0.0392  0.477  0.0238  0.477
#>  7 aahs             5       4       5     4     0.0980  0.778  0.0477  0.699
#>  8 aal              1       1       1     1     0.0196  0.301  0.0119  0.301
#>  9 aardvark        21      12      14     8     0.412   1.34   0.143   1.11 
#> 10 aargh           33      26       2     1     0.647   1.53   0.310   1.43 
#> # ℹ 74,276 more rows
#> # ℹ 6 more variables: Dom_PoS_SUBTLEX <chr>, Freq_dom_PoS_SUBTLEX <dbl>,
#> #   Percentage_dom_PoS <dbl>, All_PoS_SUBTLEX <chr>, All_freqs_SUBTLEX <chr>,
#> #   `Zipf-value` <dbl>
```
…
4.  Word patching and recounting. Systematic word-level errors are
    repaired. For example, the OCR error `lrish` for *Irish* is replaced
    with `irish` and the counts are updated.

In steps (1) and (2), the corpus is a tibble of lines with row per
subtitle line. The `batch` column is used for splitting the corpus into
batches so that words can be counted in parallel.

``` r
library(tidyverse)
data_raw <- targets::tar_read(data_raw_corpus)
data_raw
#> # A tibble: 6,043,188 × 3
#>    index batch line                                                             
#>    <int> <int> <chr>                                                            
#>  1     1     1 "***Tony? Hey, Tony, where you going? "                          
#>  2     2     1 "That place goes on the market today. "                          
#>  3     3     1 "I couldn't call myself his friend if I weren't willing to do th…
#>  4     4     1 "You don't want to run a wedding magazine for a company that is …
#>  5     5     1 "Well, I guess the only thing left for us to do  is to wire Marc…
#>  6     6     1 "I, like, dumped her, like, 20 years ago.  So? So, I don't think…
#>  7     7     1 "Otis Day &amp; The Knights - Shout!  guys escaping from Sandi's…
#>  8     8     1 "I'm gonna call it Serendipity.  What does that mean? I don't kn…
#>  9     9     1 "What on earth is wrong with you, besides the obvious lack of fa…
#> 10    10     1 "Where would you go ? "                                          
#> # ℹ 6,043,178 more rows
```

In step (3), the counts from each batch are pooled together to give the
following frequency counts:

``` r
data_pooled <- targets::tar_read(data_counts_pooled)
data_pooled |> 
  print(n = 20)
#> # A tibble: 197,112 × 2
#>    word        n
#>    <chr>   <int>
#>  1 you   1842898
#>  2 the   1472439
#>  3 i     1463947
#>  4 to    1142666
#>  5 a     1024589
#>  6 and    670085
#>  7 it     659502
#>  8 of     579718
#>  9 that   545121
#> 10 in     495987
#> 11 me     466417
#> 12 is     454121
#> 13 what   424831
#> 14 this   402427
#> 15 on     350957
#> 16 for    346988
#> 17 my     340032
#> 18 i'm    335624
#> 19 your   324869
#> 20 we     318234
#> # ℹ 197,092 more rows
```

Notice that there are around 200,000 words here, instead of the
60,000-70,000 words we might see elsewhere. This is probably because we
did not lump any inflections together or performed similar reductions.

In step (4), I repair errors in this word list. Basically, if I see ever
any typos in the counts, I try to store a correction in the csv file
`data/patches.csv`. This is probably a futile, never-ending endeavor,
but it’s lightweight and easy to update.

``` r
data_patches <- targets::tar_read("data_patches")
data_patches
#> # A tibble: 3,281 × 2
#>    old        new            
#>    <chr>      <chr>          
#>  1 1,000ft    1,000 feet     
#>  2 1,000km    1,000 kilometer
#>  3 1,000lb    1,000 pound    
#>  4 1,000yds   1,000 yards    
#>  5 1,200years 1,200 years    
#>  6 1,800miles 1,800 miles    
#>  7 14,000ft   14,000 feet    
#>  8 2,000ft    2,000 feet     
#>  9 20,000ft   20,000 feet    
#> 10 3,000ft    3,000 feet     
#> # ℹ 3,271 more rows
```
…
Many of the direct patches could simplified into
regular-expression-based ones, and some of the very narrow
regular-expression ones could be made into direct patches. It doesn’t
really matter as long as there are no false positive repairs.

After applying the patches in step (4), we obtain the following counts:

``` r
data <- targets::tar_read("data_counts_patched")
data
#> # A tibble: 193,517 × 2
#>    word        n
#>    <chr>   <int>
#>  1 you   1843993
#>  2 the   1472783
#>  3 i     1463970
#>  4 to    1142780
#>  5 a     1024721
#>  6 and    670128
#>  7 it     659564
#>  8 of     582164
#>  9 that   545204
#> 10 in     496060
#> # ℹ 193,507 more rows
```

We can rationalize our patching activity by looking at how many words
are affected. These words have been removed by the patching:

``` r
data_pooled |>
  anti_join(data, by = "word") |> 
  print(n = 20)
#> # A tibble: 3,812 × 2
#>    word              n
#>    <chr>         <int>
#>  1 i'il           2179
#>  2 lsland         1180
#>  3 lndian         1104
#>  4 ltalian        1018
#>  5 lndians         647
#>  6 lnspector       638
#>  7 we'il           583
#>  8 ltaly           558
#>  9 you'il          525
#> 10 lnternet        522
#> 11 lndia           428
#> 12 lnn             345
#> 13 lce             319
#> 14 lt's            302
#> 15 of'em           289
#> 16 lnternational   277
#> 17 offence         269
#> 18 lvy             266
#> 19 ofthe           252
#> 20 lreland         238
#> # ℹ 3,792 more rows
```
…
But the combination of treating contractions as separate words and the
l-\>i conversion means that there are a few thousand spurious tokens of
“il” in SUBTLEXUS:

``` r
# raw, unpatched
data_pooled |> 
  filter(str_detect(word, "^il$|'il")) |> 
  mutate(sum(n))
#> # A tibble: 37 × 3
#>    word        n `sum(n)`
#>    <chr>   <int>    <int>
#>  1 i'il     2179     4143
#>  2 we'il     583     4143
#>  3 you'il    525     4143
#>  4 he'il     175     4143
#>  5 il        143     4143
#>  6 it'il     123     4143
#>  7 they'il   105     4143
#>  8 l'il       70     4143
#>  9 she'il     58     4143
#> 10 s'il       54     4143
#> # ℹ 27 more rows
…
I saw the textstem package as a solution for lemmatizing words. Let’s
try that.

``` r
data |> 
  head(1000) |> 
  mutate(
    lemma = textstem::lemmatize_words(word)
  ) |> 
  group_by(lemma) |> 
  mutate(lemma_n = sum(n)) |> 
  arrange(desc(lemma_n)) |> 
  print(n = 20)
#> # A tibble: 1,000 × 4
#> # Groups:   lemma [823]
#>    word        n lemma lemma_n
#>    <chr>   <int> <chr>   <int>
#>  1 you   1843993 you   1851697
#>  2 ya       7704 you   1851697
#>  3 is     454127 be    1535662
#>  4 be     289158 be    1535662
#>  5 was    284082 be    1535662
#>  6 are    262933 be    1535662
#>  7 been    87371 be    1535662
#>  8 were    83517 be    1535662
#>  9 am      49878 be    1535662
#> 10 being   24596 be    1535662
#> 11 the   1472783 the   1472783
#> 12 i     1463970 i     1463970
#> 13 to    1142780 to    1142780
#> 14 a     1024721 a     1118445
#> 15 an      93724 a     1118445
#> 16 and    670128 and    670128
#> 17 it     659564 it     659564
#> 18 that   545204 that   583133
#> 19 those   37929 that   583133
#> 20 of     582164 of     582164
#> # ℹ 980 more rows
```
…
Line-repair tries to correct OCR errors and contractions with extra
spacing (“isn ’t”). These are words that would not exist if not for the
line patches. For example, *HIV* appears because OCR reads the word as
`"HlV"`.

``` r
abc |> 
  filter(is.na(n_a)) |> 
  mutate(
    n_b_tokens = sum(n_b, na.rm = TRUE),
    n_c_tokens = sum(n_c, na.rm = TRUE)
  )
#> # A tibble: 2,828 × 6
#>    word       n_a   n_b   n_c n_b_tokens n_c_tokens
#>    <chr>    <int> <int> <int>      <int>      <int>
#>  1 hiv         NA   227   227       9395       9916
#>  2 rené        NA   142   142       9395       9916
#>  3 cliché      NA   132   132       9395       9916
#>  4 º           NA   112   112       9395       9916
#>  5 señora      NA   105   105       9395       9916
#>  6 führer      NA    99    99       9395       9916
#>  7 pelé        NA    97    97       9395       9916
#>  8 fräulein    NA    90    90       9395       9916
#>  9 señorita    NA    90    90       9395       9916
#> 10 temüjin     NA    68    68       9395       9916
#> # ℹ 2,818 more rows
```

Some words were lost in the line patching. Some subtitles would have
annotations like `"(SlNGlNG)"` or `"(lN ENGLlSH)"` so the OCR correction
repaired these.

``` r
abc |> 
  filter(!is.na(n_a), is.na(n_b)) |> 
  mutate(
    n_a_tokens = sum(n_a, na.rm = TRUE)
  )
#> # A tibble: 5,060 × 5
#>    word            n_a   n_b   n_c n_a_tokens
#>    <chr>         <int> <int> <int>      <int>
#>  1 teli           1002    NA    NA      29937
#>  2 realiy          859    NA    NA      29937
#>  3 www.forom.com   722    NA    NA      29937
#>  4 rlggs           682    NA    NA      29937
#>  5 lsn't           660    NA    NA      29937
#>  6 stili           445    NA    NA      29937
#>  7 helio           442    NA    NA      29937
#>  8 sdl             360    NA    NA      29937
#>  9 alds            302    NA    NA      29937
#> 10 slpowlcz        199    NA    NA      29937
#> # ℹ 5,050 more rows
```
…
# raw increase
diffs |> 
  select(-n_c, -starts_with("c_vs")) |> 
  arrange(desc(b_vs_a))
#> # A tibble: 202,384 × 5
#>    word      n_a    n_b b_vs_a b_vs_a_prop
#>    <chr>   <int>  <int>  <int>       <dbl>
#>  1 i'm    327469 335624   8155     0.0249 
#>  2 it's   276006 283795   7789     0.0282 
#>  3 don't  309965 316493   6528     0.0211 
#>  4 that's 159049 163181   4132     0.0260 
#>  5 you're 184816 188698   3882     0.0210 
#>  6 in     492327 495987   3660     0.00743
#>  7 all    257743 261033   3290     0.0128 
#>  8 i'll   111235 113741   2506     0.0225 
#>  9 kitt       11   2079   2068   172.     
#> 10 can't   90478  92488   2010     0.0222 
#> # ℹ 202,374 more rows

# proportion increase
diffs |> 
  select(-n_c, -starts_with("c_vs")) |> 
  arrange(desc(b_vs_a_prop)) 
#> # A tibble: 202,384 × 5
#>    word     n_a   n_b b_vs_a b_vs_a_prop
#>    <chr>  <int> <int>  <int>       <dbl>
#>  1 hiv        0   227    227        227 
#>  2 kitt      11  2079   2068        172.
#>  3 rené       0   142    142        142 
#>  4 cliché     0   132    132        132 
#>  5 cia        8  1083   1075        119.
#>  6 º          0   112    112        112 
#>  7 fiancé     2   323    321        107 
#>  8 señora     0   105    105        105 
#>  9 führer     0    99     99         99 
#> 10 pelé       0    97     97         97 
#> # ℹ 202,374 more rows
```

Words that decreased during line-patching.

``` r
diffs |> 
  select(-n_c, -starts_with("c_vs")) |> 
  arrange(b_vs_a)
#> # A tibble: 202,384 × 5
#>    word      n_a     n_b b_vs_a b_vs_a_prop
#>    <chr>   <int>   <int>  <int>       <dbl>
#>  1 s       30140    4347 -25793    -0.856  
#>  2 t       19441    3611 -15830    -0.814  
#>  3 i     1478397 1463947 -14450    -0.00977
#>  4 m       10902    2620  -8282    -0.760  
#>  5 it     666532  659502  -7030    -0.0105 
#>  6 don      8418    1866  -6552    -0.778  
#>  7 re       8044    2064  -5980    -0.743  
#>  8 you   1848677 1842898  -5779    -0.00313
#>  9 ll       5413     721  -4692    -0.867  
#> 10 ln       3696      14  -3682    -0.996  
#> # ℹ 202,374 more rows

diffs |> 
  select(-n_c, -starts_with("c_vs")) |> 
  arrange(b_vs_a_prop) 
#> # A tibble: 202,384 × 5
#>    word            n_a   n_b b_vs_a b_vs_a_prop
#>    <chr>         <int> <int>  <int>       <dbl>
#>  1 teli           1002     0  -1002      -0.999
#>  2 realiy          859     0   -859      -0.999
#>  3 www.forom.com   722     0   -722      -0.999
#>  4 rlggs           682     0   -682      -0.999
#>  5 lsn't           660     0   -660      -0.998
#>  6 stili           445     0   -445      -0.998
#>  7 helio           442     0   -442      -0.998
#>  8 sdl             360     0   -360      -0.997
#>  9 weli           2015     5  -2010      -0.997
#> 10 alds            302     0   -302      -0.997
#> # ℹ 202,374 more rows
```

Finally, these are words that changed with word-level patching.

``` r
diffs |> 
  select(-n_a, -starts_with("b_vs")) |> 
  arrange(desc(c_vs_b))
#> # A tibble: 202,384 × 5
#>    word          n_b     n_c c_vs_b c_vs_b_prop
#>    <chr>       <int>   <int>  <int>       <dbl>
#>  1 of         579718  582164   2446    0.00422 
#>  2 i'll       113741  115956   2215    0.0195  
#>  3 island       1949    3129   1180    0.605   
#>  4 indian        178    1282   1104    6.17    
#>  5 you       1842898 1843993   1095    0.000594
#>  6 italian       237    1255   1018    4.28    
#>  7 just       241453  242183    730    0.00302 
#>  8 like       202350  203054    704    0.00348 
#>  9 indians       145     794    649    4.45    
#> 10 inspector    1089    1728    639    0.586   
#> # ℹ 202,374 more rows

diffs |> 
  select(-n_a, -starts_with("b_vs")) |> 
  arrange(desc(c_vs_b_prop)) 
#> # A tibble: 202,384 × 5
#>    word        n_b   n_c c_vs_b c_vs_b_prop
#>    <chr>     <int> <int>  <int>       <dbl>
#>  1 mcintyre      0   120    120       120  
#>  2 ided          2    77     75        25  
#>  3 iii           8   189    181        20.1
#>  4 indian's      0    19     19        19  
#>  5 indies        2    52     50        16.7
#>  6 inquirer      1    31     30        15  
#>  7 mcintosh      0    15     15        15  
#>  8 innsbruck     0    14     14        14  
#>  9 mcintire      0    13     13        13  
#> 10 indochina     1    26     25        12.5
#> # ℹ 202,374 more rows
```

Words that decreased from word-patching.

``` r
diffs |> 
  select(-n_a, -starts_with("b_vs")) |> 
  arrange(c_vs_b)
#> # A tibble: 202,384 × 5
#>    word        n_b   n_c c_vs_b c_vs_b_prop
#>    <chr>     <int> <int>  <int>       <dbl>
#>  1 i'il       2179     0  -2179      -1.00 
#>  2 lsland     1180     0  -1180      -0.999
#>  3 lndian     1104     0  -1104      -0.999
#>  4 ltalian    1018     0  -1018      -0.999
#>  5 iike        681    32   -649      -0.952
#>  6 lndians     647     0   -647      -0.998
#>  7 lnspector   638     0   -638      -0.998
#>  8 we'il       583     0   -583      -0.998
#>  9 ltaly       558     0   -558      -0.998
#> 10 you'il      525     0   -525      -0.998
#> # ℹ 202,374 more rows
```
…
A quick check of what these remaining errors look like. I seem to have
missed contractions that use an asterisk.

``` r
data_patched_lines <- targets::tar_read("data_raw_corpus_patched")


data_patched_lines |> 
  filter(str_detect(line, "n[*]t"))
#> # A tibble: 155 × 3
#>     index batch line                                                            
#>     <int> <int> <chr>                                                           
#>  1  55402     2 "There ain*t no scripts. It*s just me.  It was me. Larry, stay.…
#>  2 223616     8 "Don*t worry, it*s kosher.  Mr. Luffler gave me a message. Know…
#>  3 255794     9 "No, I don*t kowtow to no mattress company. "                   
#>  4 273735    10 "Of course, their names aren*t on it. "                         
#>  5 301466    10 "Ladies and gentlemen...  ...I give you Mrs. Lonesome Rhodes...…
#>  6 327935    11 "Don*t you worry, I*ve spared you more than you*ve spared yours…
#>  7 332473    12 "He*s a good-looking scoundrel, ain*t he? "                     
#>  8 402505    14 "Now, you good people ain*t so dumb you don*t know what*s impor…
#>  9 406866    14 "My goodness, ain*t we fussy. "                                 
#> 10 412135    14 "Isn*t he something? "                                          
#> # ℹ 145 more rows
…
